Biostat 200B Project
…
# NINDS$ninety [NINDS$ninety == 42 ] <- NA
# NINDS$hour24 [NINDS$hour24 == 42] <- NA

# select(,nihssb,age,brace,male,female,hypertension,diabetes,smoke) 
NINDS 

# A tibble: 599 × 22
     los nihssb   age brace bgender bhyper bdiab cursmker hour24 treatcd ninety
   <dbl>  <dbl> <dbl> <dbl>   <dbl>  <dbl> <dbl>    <dbl>  <dbl>   <dbl>  <dbl>
 1    11     29  62.0     2       2      0     0      100     12       1      0
 2     6     19  69.5     2       1      0     0        0      2       1      0
 3    26     23  80.7     1       1    100   100        0     18       2     22
 4    18     10  53.8     2       2    100     0        0     11       2      6
 5     4      6  67.2     2       2    100     0        0      0       1      0
 6     6     10  79.7     2       2      0     0        0      9       2      2
 7    22     18  65.3     1       2    100   100      100     23       1     27
 8     4      4  80.5     2       2      0   100        0      0       1      0
 9     7      8  60.6     2       2    100   100        0      6       2      2
10     7     13  54.4     1       2    100     0      100      4       2      1
# … with 589 more rows, and 11 more variables: int3mles <dbl>, oldvol <dbl>,
#   gender <dbl>, hypertension1 <dbl>, diabetes1 <dbl>, smoke1 <dbl>,
#   black <dbl>, hispanic <dbl>, asian <dbl>, other <dbl>, prtreat <dbl>
…
